<?xml version="1.0" encoding="iso-8859-1"?>
<!-- Generator: Adobe Illustrator 19.0.0, SVG Export Plug-In . SVG Version: 6.00 Build 0)  -->
<svg version="1.1" id="Capa_1" xmlns="http://www.w3.org/2000/svg" xmlns:xlink="http://www.w3.org/1999/xlink" x="0px" y="0px"
	 viewBox="0 0 320 320" style="enable-background:new 0 0 320 320;" xml:space="preserve">
<g id="XMLID_109_">
	<g id="XMLID_110_">
		<circle id="XMLID_138_" style="fill:#BF720D;" cx="65" cy="135" r="25"/>
		<circle id="XMLID_169_" style="fill:#BF720D;" cx="50" cy="80" r="50"/>
		<circle id="XMLID_197_" style="fill:#FFFFFF;" cx="50" cy="80" r="20"/>
	</g>
	<g id="XMLID_221_">
		<circle id="XMLID_222_" style="fill:#FF9811;" cx="255" cy="135" r="25"/>
		<circle id="XMLID_223_" style="fill:#FF9811;" cx="270" cy="80" r="50"/>
		<circle id="XMLID_224_" style="fill:#FFFFFF;" cx="270" cy="80" r="20"/>
	</g>
	<path id="XMLID_225_" style="fill:#FFDA44;" d="M50,30v20c0,60.752,49.249,110,110,110s110-49.248,110-110V30H50z"/>
	<path id="XMLID_226_" style="fill:#FF9811;" d="M160,30H50v20c0,60.752,49.249,110,110,110V30z"/>
	<polygon id="XMLID_41_" style="fill:#FFDA44;" points="160,210 190,210 220,270 160,270 	"/>
	<rect id="XMLID_40_" x="160" y="100" style="fill:#FFDA44;" width="30" height="120"/>
	<rect id="XMLID_39_" x="130" y="100" style="fill:#FF9811;" width="30" height="120"/>
	<polygon id="XMLID_38_" style="fill:#FF9811;" points="130,210 160,210 160,270 100,270 	"/>
	<rect id="XMLID_227_" x="90" y="260" style="fill:#BF720D;" width="70" height="60"/>
	<rect id="XMLID_228_" x="160" y="260" style="fill:#FF9811;" width="70" height="60"/>
	<rect id="XMLID_229_" x="120" y="290" style="fill:#FF9811;" width="40" height="30"/>
	<rect id="XMLID_230_" x="160" y="290" style="fill:#FFDA44;" width="40" height="30"/>
	<g id="XMLID_231_">
		<rect id="XMLID_232_" x="50" style="fill:#BF720D;" width="110" height="30"/>
		<rect id="XMLID_233_" x="160" style="fill:#FF9811;" width="110" height="30"/>
	</g>
</g>

</svg>
